Date,Demand
7/25/2012,59
7/26/2012,6
7/27/2012,13
7/28/2012,0
7/30/2012,20
7/31/2012,19
8/1/2012,17
8/2/2012,13
8/3/2012,14
8/4/2012,0
8/6/2012,16
8/7/2012,17
8/8/2012,13
8/9/2012,9
8/10/2012,10
8/11/2012,3
8/13/2012,17
8/14/2012,4
8/15/2012,11
8/16/2012,6
8/17/2012,19
8/18/2012,6
8/20/2012,33
8/21/2012,10
8/22/2012,8
8/23/2012,11
8/24/2012,10
8/25/2012,1
8/27/2012,34
8/28/2012,28
8/29/2012,10
8/30/2012,10
8/31/2012,16
9/1/2012,1
9/3/2012,17
9/4/2012,12
9/5/2012,7
9/6/2012,18
9/7/2012,15
9/8/2012,5
9/10/2012,18
9/11/2012,10
9/12/2012,15
9/13/2012,7
9/14/2012,12
9/15/2012,0
9/17/2012,23
9/18/2012,16
9/19/2012,14
9/20/2012,23
9/21/2012,8
9/22/2012,4
9/24/2012,19
9/25/2012,5
9/26/2012,17
9/27/2012,11
9/28/2012,11
9/29/2012,2
10/1/2012,31
10/2/2012,18
10/3/2012,13
10/4/2012,11
10/5/2012,8
10/6/2012,0
10/8/2012,25
10/9/2012,5
10/10/2012,10
10/11/2012,4
10/12/2012,14
10/13/2012,3
10/15/2012,9
10/16/2012,14
10/17/2012,9
10/18/2012,15
10/19/2012,11
10/20/2012,0
10/22/2012,31
10/23/2012,15
10/24/2012,27
10/25/2012,4
10/26/2012,14
10/27/2012,1
10/29/2012,23
10/30/2012,113
10/31/2012,5
11/1/2012,7
11/2/2012,7
11/3/2012,1
11/5/2012,26
11/6/2012,6
11/7/2012,10
11/8/2012,12
11/9/2012,9
11/10/2012,0
11/12/2012,14
11/13/2012,6
11/14/2012,4
11/15/2012,7
11/16/2012,13
11/17/2012,1
11/19/2012,13
11/20/2012,10
11/21/2012,5
11/22/2012,2
11/23/2012,7
11/24/2012,0
11/26/2012,3
11/27/2012,5
11/28/2012,4
11/29/2012,8
11/30/2012,6
12/1/2012,7
12/3/2012,15
12/4/2012,5
12/5/2012,5
12/6/2012,5
12/7/2012,13
12/8/2012,7
12/10/2012,10
12/11/2012,11
12/12/2012,7
12/13/2012,14
12/14/2012,8
12/15/2012,2
12/17/2012,15
12/18/2012,6
12/19/2012,11
12/20/2012,7
12/21/2012,6
12/22/2012,31
12/24/2012,4
12/25/2012,0
12/26/2012,108
12/27/2012,5
12/28/2012,4
12/29/2012,0
12/31/2012,0
1/1/2013,0
1/2/2013,7
1/3/2013,2
1/4/2013,7
1/5/2013,4
1/7/2013,21
1/8/2013,10
1/9/2013,8
1/10/2013,4
1/11/2013,3
1/12/2013,0
1/14/2013,11
1/15/2013,7
1/16/2013,9
1/17/2013,3
1/18/2013,7
1/19/2013,0
1/21/2013,15
1/22/2013,2
1/23/2013,5
1/24/2013,1
1/25/2013,6
1/26/2013,1
1/28/2013,12
1/29/2013,4
1/30/2013,10
1/31/2013,10
2/1/2013,5
2/2/2013,0
2/4/2013,25
2/5/2013,13
2/6/2013,7
2/7/2013,10
2/8/2013,6
2/9/2013,0
2/11/2013,14
2/12/2013,2
2/13/2013,8
2/14/2013,5
2/15/2013,15
2/16/2013,0
2/18/2013,15
2/19/2013,9
2/20/2013,2
2/21/2013,2
2/22/2013,6
2/23/2013,0
2/25/2013,19
2/26/2013,9
2/27/2013,3
2/28/2013,3
3/1/2013,11
3/2/2013,0
3/4/2013,14
3/5/2013,1
3/6/2013,12
3/7/2013,3
3/8/2013,9
3/9/2013,0
3/11/2013,21
3/12/2013,10
3/13/2013,2
3/14/2013,3
3/15/2013,5
3/16/2013,0
3/18/2013,7
3/19/2013,8
3/20/2013,2
3/21/2013,12
3/22/2013,9
3/23/2013,0
3/25/2013,12
3/26/2013,7
3/27/2013,15
3/28/2013,1
3/29/2013,10
3/30/2013,0
4/1/2013,9
4/2/2013,4
4/3/2013,19
4/4/2013,7
4/5/2013,5
4/6/2013,5
4/8/2013,7
4/9/2013,10
4/10/2013,10
4/11/2013,14
4/12/2013,30
4/13/2013,6
4/15/2013,12
4/16/2013,13
4/17/2013,12
4/18/2013,6
4/19/2013,16
4/20/2013,4
4/22/2013,11
4/23/2013,8
4/24/2013,0
4/25/2013,0
4/26/2013,4
4/27/2013,2
4/29/2013,6
4/30/2013,2
5/1/2013,2
5/2/2013,2
5/3/2013,8
5/4/2013,3
5/6/2013,52
5/7/2013,51
5/8/2013,6
5/9/2013,7
5/10/2013,1
5/11/2013,1
5/13/2013,5
5/14/2013,3
5/15/2013,0
5/16/2013,0
5/17/2013,6
5/18/2013,1
5/20/2013,5
5/21/2013,6
5/22/2013,0
5/23/2013,9
5/24/2013,3
5/25/2013,0
5/27/2013,3
5/28/2013,7
5/29/2013,3
5/30/2013,4
5/31/2013,9
6/1/2013,0
6/3/2013,5
6/4/2013,10
6/5/2013,0
6/6/2013,2
6/7/2013,3
6/8/2013,4
6/10/2013,8
6/11/2013,12
6/12/2013,1
6/13/2013,5
6/14/2013,9
6/15/2013,2
6/17/2013,5
6/18/2013,7
6/19/2013,3
6/20/2013,4
6/21/2013,3
6/22/2013,4
6/24/2013,5
6/25/2013,6
6/26/2013,2
6/27/2013,3
6/28/2013,4
6/29/2013,0
7/1/2013,5
7/2/2013,6
7/3/2013,4
7/4/2013,2
7/5/2013,4
7/6/2013,0
7/8/2013,9
7/9/2013,24
7/10/2013,0
7/11/2013,5
7/12/2013,0
7/13/2013,1
7/15/2013,7
7/16/2013,2
7/17/2013,4
7/18/2013,6
7/19/2013,0
7/20/2013,0
7/22/2013,5
7/23/2013,2
7/24/2013,8
7/25/2013,7
7/26/2013,6
7/27/2013,4
7/29/2013,9
7/30/2013,7
7/31/2013,1
8/1/2013,2
8/2/2013,9
8/3/2013,3
8/5/2013,11
8/6/2013,5
8/7/2013,3
8/8/2013,8
8/9/2013,7
8/10/2013,2
8/12/2013,8
8/13/2013,1
8/14/2013,6
8/15/2013,4
8/16/2013,2
8/17/2013,2
8/19/2013,3
8/20/2013,12
8/21/2013,0
8/22/2013,10
8/23/2013,3
8/24/2013,2
8/26/2013,14
8/27/2013,14
8/28/2013,5
8/29/2013,129
8/30/2013,2
8/31/2013,2
9/2/2013,8
9/3/2013,8
9/4/2013,1
9/5/2013,1
9/6/2013,5
9/7/2013,0
9/9/2013,3
9/10/2013,6
9/11/2013,2
9/12/2013,5
9/13/2013,3
9/14/2013,1
9/16/2013,4
9/17/2013,4
9/18/2013,0
9/19/2013,5
9/20/2013,3
9/21/2013,2
9/23/2013,6
9/24/2013,4
9/25/2013,9
9/26/2013,2
9/27/2013,5
9/28/2013,3
9/30/2013,10
10/1/2013,11
10/2/2013,6
10/3/2013,3
10/4/2013,5
10/5/2013,2
10/7/2013,3
10/8/2013,5
10/9/2013,3
10/10/2013,11
10/11/2013,0
10/12/2013,1
10/14/2013,4
10/15/2013,7
10/16/2013,0
10/17/2013,6
10/18/2013,9
10/19/2013,1
10/21/2013,3
10/22/2013,8
10/23/2013,0
10/24/2013,3
10/25/2013,4
10/26/2013,0
10/28/2013,3
10/29/2013,3
10/30/2013,0
10/31/2013,4
11/1/2013,4
11/2/2013,0
11/4/2013,7
11/5/2013,3
11/6/2013,1
11/7/2013,9
11/8/2013,4
11/9/2013,1
11/11/2013,4
11/12/2013,5
11/13/2013,2
11/14/2013,1
11/15/2013,1
11/16/2013,0
11/18/2013,8
11/19/2013,1
11/20/2013,1
11/21/2013,4
11/22/2013,13
11/23/2013,0
11/25/2013,12
11/26/2013,9
11/27/2013,1
11/28/2013,7
11/29/2013,2
11/30/2013,1
12/2/2013,3
12/3/2013,1
12/4/2013,1
12/5/2013,7
12/6/2013,2
12/7/2013,0
12/9/2013,3
12/10/2013,5
12/11/2013,0
12/12/2013,1
12/13/2013,2
12/14/2013,0
12/16/2013,2
12/17/2013,5
12/18/2013,1
12/19/2013,0
12/20/2013,0
12/21/2013,1
12/23/2013,9
12/24/2013,3
12/25/2013,3
12/26/2013,4
12/27/2013,2
12/28/2013,0
12/30/2013,0
12/31/2013,0
1/1/2014,0
1/2/2014,0
1/3/2014,2
1/4/2014,0
1/6/2014,7
1/7/2014,12
1/8/2014,1
1/9/2014,3
1/10/2014,2
1/11/2014,2
1/13/2014,2
1/14/2014,1
1/15/2014,7
1/16/2014,4
1/17/2014,9
1/18/2014,3
1/20/2014,1
1/21/2014,3
1/22/2014,1
1/23/2014,2
1/24/2014,1
1/25/2014,3
1/27/2014,3
1/28/2014,4
1/29/2014,0
1/30/2014,0
1/31/2014,4
2/1/2014,0
2/3/2014,3
2/4/2014,6
2/5/2014,2
2/6/2014,1
2/7/2014,1
2/8/2014,2
2/10/2014,0
2/11/2014,5
2/12/2014,0
2/13/2014,4
2/14/2014,3
2/15/2014,0
2/17/2014,2
2/18/2014,3
2/19/2014,0
2/20/2014,7
2/21/2014,2
2/22/2014,1
2/24/2014,10
2/25/2014,2
2/26/2014,0
2/27/2014,2
2/28/2014,4
3/1/2014,1
3/3/2014,5
3/4/2014,6
3/5/2014,1
3/6/2014,2
3/7/2014,4
3/8/2014,1
3/10/2014,2
3/11/2014,7
3/12/2014,1
3/13/2014,1
3/14/2014,4
3/15/2014,7
3/17/2014,83
3/18/2014,3
3/19/2014,0
3/20/2014,3
3/21/2014,2
3/22/2014,0
3/24/2014,8
3/25/2014,5
3/26/2014,3
3/27/2014,9
3/28/2014,7
3/29/2014,2
3/31/2014,6
4/1/2014,6
4/2/2014,1
4/3/2014,6
4/4/2014,3
4/5/2014,1
4/7/2014,0
4/8/2014,7
4/9/2014,0
4/10/2014,2
4/11/2014,2
4/12/2014,0
4/14/2014,10
4/15/2014,7
4/16/2014,0
4/17/2014,4
4/18/2014,4
4/19/2014,0
4/21/2014,3
4/22/2014,7
4/23/2014,0
4/24/2014,4
4/25/2014,5
4/26/2014,3
4/28/2014,31
4/29/2014,32
4/30/2014,2
5/1/2014,3
5/2/2014,0
